('C:\\Users\\KTH\\Desktop\\cal\\dist\\calcu',
 None,
 False,
 [('calcu.exe', 'C:\\Users\\KTH\\Desktop\\cal\\build\\calcu\\calcu.exe', 'EXECUTABLE'), ('calcu.exe.manifest', 'C:\\Users\\KTH\\Desktop\\cal\\build\\calcu\\calcu.exe.manifest', 'BINARY'), ('Microsoft.VC90.CRT.manifest', 'C:\\windows\\WinSxS\\Manifests\\amd64_microsoft.vc90.crt_1fc8b3b9a1e18e3b_9.0.21022.8_none_750b37ff97f4f68b.manifest', 'BINARY'), ('msvcr90.dll', 'C:\\windows\\WinSxS\\amd64_microsoft.vc90.crt_1fc8b3b9a1e18e3b_9.0.21022.8_none_750b37ff97f4f68b\\msvcr90.dll', 'BINARY'), ('msvcp90.dll', 'C:\\windows\\WinSxS\\amd64_microsoft.vc90.crt_1fc8b3b9a1e18e3b_9.0.21022.8_none_750b37ff97f4f68b\\msvcp90.dll', 'BINARY'), ('msvcm90.dll', 'C:\\windows\\WinSxS\\amd64_microsoft.vc90.crt_1fc8b3b9a1e18e3b_9.0.21022.8_none_750b37ff97f4f68b\\msvcm90.dll', 'BINARY'), ('python27.dll', 'C:\\windows\\system32\\python27.dll', 'BINARY'), ('numpy.core.umath', 'C:\\Apps\\Python\\Python2.7.5\\lib\\site-packages\\numpy\\core\\umath.pyd', 'EXTENSION'), ('_win32sysloader', 'C:\\Apps\\Python\\Python2.7.5\\lib\\site-packages\\win32\\_win32sysloader.pyd', 'EXTENSION'), ('win32pdh', 'C:\\Apps\\Python\\Python2.7.5\\lib\\site-packages\\win32\\win32pdh.pyd', 'EXTENSION'), ('numpy.lib._compiled_base', 'C:\\Apps\\Python\\Python2.7.5\\lib\\site-packages\\numpy\\lib\\_compiled_base.pyd', 'EXTENSION'), ('win32pipe', 'C:\\Apps\\Python\\Python2.7.5\\lib\\site-packages\\win32\\win32pipe.pyd', 'EXTENSION'), ('select', 'C:\\Apps\\Python\\Python2.7.5\\DLLs\\select.pyd', 'EXTENSION'), ('unicodedata', 'C:\\Apps\\Python\\Python2.7.5\\DLLs\\unicodedata.pyd', 'EXTENSION'), ('pyexpat', 'C:\\Apps\\Python\\Python2.7.5\\DLLs\\pyexpat.pyd', 'EXTENSION'), ('numpy.core.scalarmath', 'C:\\Apps\\Python\\Python2.7.5\\lib\\site-packages\\numpy\\core\\scalarmath.pyd', 'EXTENSION'), ('numpy.linalg._umath_linalg', 'C:\\Apps\\Python\\Python2.7.5\\lib\\site-packages\\numpy\\linalg\\_umath_linalg.pyd', 'EXTENSION'), ('numpy.fft.fftpack_lite', 'C:\\Apps\\Python\\Python2.7.5\\lib\\site-packages\\numpy\\fft\\fftpack_lite.pyd', 'EXTENSION'), ('_hashlib', 'C:\\Apps\\Python\\Python2.7.5\\DLLs\\_hashlib.pyd', 'EXTENSION'), ('bz2', 'C:\\Apps\\Python\\Python2.7.5\\DLLs\\bz2.pyd', 'EXTENSION'), ('_ssl', 'C:\\Apps\\Python\\Python2.7.5\\DLLs\\_ssl.pyd', 'EXTENSION'), ('numpy.random.mtrand', 'C:\\Apps\\Python\\Python2.7.5\\lib\\site-packages\\numpy\\random\\mtrand.pyd', 'EXTENSION'), ('_ctypes', 'C:\\Apps\\Python\\Python2.7.5\\DLLs\\_ctypes.pyd', 'EXTENSION'), ('win32trace', 'C:\\Apps\\Python\\Python2.7.5\\lib\\site-packages\\win32\\win32trace.pyd', 'EXTENSION'), ('win32ui', 'C:\\Apps\\Python\\Python2.7.5\\lib\\site-packages\\Pythonwin\\win32ui.pyd', 'EXTENSION'), ('numpy.core.multiarray', 'C:\\Apps\\Python\\Python2.7.5\\lib\\site-packages\\numpy\\core\\multiarray.pyd', 'EXTENSION'), ('numpy.linalg.lapack_lite', 'C:\\Apps\\Python\\Python2.7.5\\lib\\site-packages\\numpy\\linalg\\lapack_lite.pyd', 'EXTENSION'), ('win32api', 'C:\\Apps\\Python\\Python2.7.5\\lib\\site-packages\\win32\\win32api.pyd', 'EXTENSION'), ('_socket', 'C:\\Apps\\Python\\Python2.7.5\\DLLs\\_socket.pyd', 'EXTENSION'), ('pythoncom27.dll', 'C:\\windows\\SYSTEM32\\pythoncom27.dll', 'BINARY'), ('numpy.core._dotblas', 'C:\\Apps\\Python\\Python2.7.5\\lib\\site-packages\\numpy\\core\\_dotblas.pyd', 'EXTENSION'), ('pywintypes27.dll', 'C:\\windows\\system32\\pywintypes27.dll', 'BINARY'), ('libiomp5md.dll', 'C:\\Apps\\Python\\Python2.7.5\\Lib\\site-packages\\numpy\\core\\libiomp5md.dll', 'BINARY'), ('Microsoft.VC90.MFC.manifest', 'C:\\windows\\WinSxS\\Manifests\\amd64_microsoft.vc90.mfc_1fc8b3b9a1e18e3b_9.0.21022.8_none_706fccb39ad7e580.manifest', 'BINARY'), ('mfc90.dll', 'C:\\windows\\WinSxS\\amd64_microsoft.vc90.mfc_1fc8b3b9a1e18e3b_9.0.21022.8_none_706fccb39ad7e580\\mfc90.dll', 'BINARY'), ('mfc90u.dll', 'C:\\windows\\WinSxS\\amd64_microsoft.vc90.mfc_1fc8b3b9a1e18e3b_9.0.21022.8_none_706fccb39ad7e580\\mfc90u.dll', 'BINARY'), ('mfcm90.dll', 'C:\\windows\\WinSxS\\amd64_microsoft.vc90.mfc_1fc8b3b9a1e18e3b_9.0.21022.8_none_706fccb39ad7e580\\mfcm90.dll', 'BINARY'), ('mfcm90u.dll', 'C:\\windows\\WinSxS\\amd64_microsoft.vc90.mfc_1fc8b3b9a1e18e3b_9.0.21022.8_none_706fccb39ad7e580\\mfcm90u.dll', 'BINARY'), ('Include\\pyconfig.h', 'C:\\Apps\\Python\\Python2.7.5\\Include\\pyconfig.h', 'DATA'), ('include\\pyconfig.h', 'C:\\Apps\\Python\\Python2.7.5\\include\\pyconfig.h', 'DATA')])
