('C:\\Users\\KTH\\Desktop\\cal\\build\\calcu\\out00-PKG.pkg',
 {'BINARY': 1,
  'DATA': 1,
  'EXECUTABLE': 1,
  'EXTENSION': 1,
  'PYMODULE': 1,
  'PYSOURCE': 1},
 [('out00-PYZ.pyz', 'C:\\Users\\KTH\\Desktop\\cal\\build\\calcu\\out00-PYZ.pyz', 'PYZ'), ('struct', 'C:\\Apps\\Python\\Python2.7.5\\lib\\struct.pyc', 'PYMODULE'), ('pyi_os_path', 'C:\\Apps\\Python\\Python2.7.5\\lib\\site-packages\\pyinstaller-2.1-py2.7.egg\\PyInstaller\\loader\\pyi_os_path.pyc', 'PYMODULE'), ('pyi_archive', 'C:\\Apps\\Python\\Python2.7.5\\lib\\site-packages\\pyinstaller-2.1-py2.7.egg\\PyInstaller\\loader\\pyi_archive.pyc', 'PYMODULE'), ('pyi_importers', 'C:\\Apps\\Python\\Python2.7.5\\lib\\site-packages\\pyinstaller-2.1-py2.7.egg\\PyInstaller\\loader\\pyi_importers.pyc', 'PYMODULE'), ('_pyi_bootstrap', 'C:\\Apps\\Python\\Python2.7.5\\lib\\site-packages\\pyinstaller-2.1-py2.7.egg\\PyInstaller\\loader\\_pyi_bootstrap.py', 'PYSOURCE'), ('pyi_carchive', 'C:\\Apps\\Python\\Python2.7.5\\lib\\site-packages\\pyinstaller-2.1-py2.7.egg\\PyInstaller\\loader\\pyi_carchive.py', 'PYSOURCE'), ('pyi_rth_pkgres', 'C:\\Apps\\Python\\Python2.7.5\\lib\\site-packages\\pyinstaller-2.1-py2.7.egg\\PyInstaller\\loader\\rthooks\\pyi_rth_pkgres.py', 'PYSOURCE'), ('pyi_rth_win32comgenpy', 'C:\\Apps\\Python\\Python2.7.5\\lib\\site-packages\\pyinstaller-2.1-py2.7.egg\\PyInstaller\\loader\\rthooks\\pyi_rth_win32comgenpy.py', 'PYSOURCE'), ('calcu', 'calcu.py', 'PYSOURCE'), ('calcu.exe.manifest', 'C:\\Users\\KTH\\Desktop\\cal\\build\\calcu\\calcu.exe.manifest', 'BINARY')],
 True,
 None,
 False)
