23,45,26,21,12
34,23,25,233,4
23.34,345,27,12,23.876
234.34,5,28,6,23
545.78,76,29,89,34
86.678,54,31,76,556
238.456,34,33.2,334,23
3473.67,23,22,76,456
345.678,23,35,43,23.5
978.989667,34,25,44,123.5
567.457,34.198,20,65.67,23
678.345,23,23.59,23.5,234
345.856,324,39,123,123
764.754,2,32,345,345
345.4577,45,33,4,23.4
,234,17,34,
,36,23,23,
,23,,455,
,,,22,
,,,12,
,,,345,
,,,235,
,,,23,
,,,345,
